*** Life<Cell> 3x5 ***

Generation = 0, Population = 15.
00000
00000
00000

Generation = 5, Population = 2.
-.-.-
1---1
-.-.-

Generation = 10, Population = 6.
1.-.1
-0-0-
1.-.1

Generation = 15, Population = 2.
-.-.-
1---1
-.-.-

Generation = 20, Population = 6.
1.-.1
-0-0-
1.-.1

Generation = 25, Population = 2.
-.-.-
1---1
-.-.-

Generation = 30, Population = 6.
1.-.1
-0-0-
1.-.1

Generation = 35, Population = 2.
-.-.-
1---1
-.-.-

Generation = 40, Population = 6.
1.-.1
-0-0-
1.-.1

Generation = 45, Population = 2.
-.-.-
1---1
-.-.-

*** Life<Cell> 21x24 ***

Generation = 0, Population = 59.
-----0-----------------0
---0--------------------
------------------------
-----0-----------------0
----00---0----0---------
-0-0-------00----0----0-
------------------------
---------0--------------
--------0----0----00----
-----0-0-0--------------
----0-00-----------0----
-0---0--------0---0-----
-0----------00----------
0---0-------00---0-----0
------------------------
------0-0--------------0
----0--0--0---0---------
---0--0-----------------
---------------0--------
---0-------000----------
-----0-0---0---0--0-----

Generation = 4, Population = 158.
-1--00--------0----0-0--
-0-----1---00----0----1*
-----1-----------------1
-0-----------------0-*--
01-------00--------1---0
-0-*---010---1**0-0--11-
----*-11-----------0----
-0---*-------01---0----1
-0---0-------0-*-1-.--00
1---11---1--------.---00
0-*1--.-1.10---0-------1
-----01-1-0---0--.0---10
-*--10-*-00--0*-110*----
*-111101-----1--01.0----
----1-10-----*-1---1----
-00001----.0-00---10-0--
10-1-1100.0-001.--------
1-1-*--1--0-00---1-----0
-----*-0---*-.*0--*1----
---*--*--*.*-..000-----0
-1-.1----10*-1--.--0--0-

Generation = 8, Population = 232.
-.--.***1------1-*10-0-*
0*1-0*-1-0*-1.1--1-1--..
-----101-0-----1---1-11.
---10--------00-*1..0.-1
.***.*1----..1110*0*0--0
1.-*0-0---1*....*-11-.*-
---0...*.---100-01-0-.*0
.*001*010*----.00*-1---.
--10*-1001.--.-.01-**.01
.-.-**--0*0.1.-1-0.0--*.
-1.*-1.*.***----*-*.1*--
*.0-*1...----**0*.--11.1
-**-1****.0*-1*-***.-*1*
.1*-1*-.01.-0-1---.--1-0
*--11-*---0.-.*-*1---.--
**-.**1*1-.-1--101*-----
*-*.0.-..*.10--**-*---0-
*.*.**1--**1-1--.10-----
1----.1-..0.-*.--*..---1
0.1*-..-..*.-..0--0000-0
-11**1-0*-**-**-***-***1

Generation = 12, Population = 223.
-.-1****.1*-*01.1.*0*-0.
**.-*.0--*.1-.1*0.1.1-*.
---1*11.-.10-11----.-*..
1---1*0--.1*101-.*.**.-*
*.*...-1.*..**.-1.*.0.--
*.-.*-*-.*.**....-*.*..*
***-..*..**-.*-..-*--..1
*.*-..1..*0-*-.--*0*1--*
-*1.*--.-.*0.*0*-*1**.*.
.1.-*.**0*1.-*.--*.*-1.*
11..-...*..**---*-....--
..--....**0-0**-..--1...
-*.*..*..***01.-.*..0.-.
.1.*****0..-------.1..*.
*.0*.1.0**-*1*.-.*1.*.-*
*.-*.....*.*..---..-.-00
.1..**1*.*.--.*..0.-111-
...*..1*-*.*-.--***-000*
.10-1..*.*-.*...-..*11*.
*.1.-..***..*..0*-0-.0*1
1*.***-...***.*0*....**1

Generation = 16, Population = 175.
-.-**..**-.-.-.....1***.
*.**..--*.*.**.*-.*....*
--1.....-.-*0-..---.1.*.
..--*.-*0.1**0-......*-.
*.**.*.-*..**..-1...-.-1
*.1*.-.**...*....-.*.*..
*..-.*..*.*1.....-.01*.1
*..1*..*....*1...*-..-1*
-**.*0*.-.*...-.**.*...*
*-.1.***-.*.-.*.-*..-*..
**..-...**..*1...-....--
*.*-*.....1**..1...-....
0..*......*..-.-....1...
..*.....-...*-.10-..*...
..-....-..0.-..*.*.**.-.
..-...*...*****.1*.-.*--
***..***.*.*-*..*-.--.*1
**.*..*..*.*0***...*-1-.
*.0***..**-.**.*-*...1..
*...-...*....**-*---**.-
-*****...**....-.****..-

Generation = 20, Population = 171.
-.1**....-.-**......***.
**...*--**......-***...*
*1**.*..1...*1..1***..**
**-1**0.1.*.*11*.*....-*
.....**.*.*.*..-1...-.--
.....-.....**.....*..*..
..**....*.....*..-.-***.
.*.......*....*...*..1.*
.**..-..**..........*.**
.-*....***..**..1...-...
..*.-.*...........*...--
.*.*.*.*..-.*..1.*.-....
*.....**...*.1.**.......
.....**.-*.*.-.-.-....*.
...**.*0**-.1.****..***.
..**...*..*.*...-..1*.-1
..**.*......0*..*-.*1.*.
.....**..****.*.....1.*.
.*******.*..**.**..**..*
*...1*.......*.-*.11...-
-*.................****-

Generation = 24, Population = 147.
0*..**.**.*-*.....**.**.
.*....1-...***..-*.*...*
.1*.**..-**..*..***.**.*
..--*.0.-.*...-.*....*-.
....**.**.....**1...0*-*
.....1.**....*.*......**
.........**..***.-.0....
***.......*.............
***..1******............
**...****......***..1..*
....-*......*.*.......*1
...............*.**0....
.............-....*...*.
........-......-.-.****.
.......*.*...*.....**.*.
...**.**.**.....1*.**.0.
....**....*.*..*..**....
...*.*....*.......**-...
.*...*...*...**...***...
.**.-..**....*.*.......*
1............*..........

Generation = 28, Population = 152.
.*.....*.***..***.......
*.**..--*.*...******....
*.**..*...*.......**.***
..0-..0...*....****.****
......*...*.*.*.1..*-.*.
......**......*.....*...
......**.**......-.-*.*.
..*..**.*.....**........
.*...**.**..*.*.........
.....**...**...***..1**.
..**-*..........***.**.-
....*...........**.-.*..
.............-...**.**..
......**0......-.-*.***.
.....***.**.....***..*..
....**...***.....*......
....**.......*.*.*......
.****......*****.*..-...
*.*........*..**....*...
*...-..*****......*.*...
-**....***..............

Generation = 32, Population = 116.
.**...***....***........
.**...***..*****........
.*.**.*...**....**......
..***.0....*.*..*..*.**.
...*..*.**.........****.
....**.****..*.**.**....
.....**......*..*-.-....
.......*.*...**.........
......*..***.**....*....
.......*...*.*.....*....
...***.....*...........-
...**.**...........1....
......**.....-..*.**....
..................*..*..
.................***..**
.***.................*..
.***............*...*...
.*..............*...1...
.***..............***...
..**-...................
-*......................

Generation = 36, Population = 76.
.......**.**............
.......**.***...........
...........*............
......-..**..........*..
...***..............**..
...***.*.............*..
...**.**...*.....-......
...**.**................
..*..*..................
...*.**....*.*..........
...*...*...***.........-
....**.***..*.......**..
....**..*....-..........
......**............***.
.................*......
..**.............***....
..................*.**..
....................**..
....................**..
....*..............*....
-..*....................

Generation = 40, Population = 62.
...........**...........
......*.*..***..........
......***..**...........
......0.*...........***.
..*.................*.*.
....................***.
.................-......
.....*..................
....*...................
....**..................
........**.**..........-
.....***.....*..........
....*..***..*1.......*..
....*..*...*........*.*.
.....*.*................
................**..*...
................*.*..**.
.................*...***
......................*.
.....................*..
-.......................

Generation = 44, Population = 78.
...........***..........
.....*...**...*......*..
....*...*.****......***.
.....*.***.........*.*.*
..................***.**
...................*.*.*
.................-..***.
.....................*..
....*...................
....*.*.................
...***.*...**..........-
...**.***..*.*..........
...*...*....*-.......*..
...**.**............***.
..................**.***
................**.**...
................*.**..**
.................*......
........................
........................
-.......................

*** Life<Cell> 3x1 ***

Generation = 0, Population = 3.
0
0
0

Generation = 11, Population = 0.
-
-
-

Generation = 22, Population = 0.
-
-
-

Generation = 33, Population = 0.
-
-
-

*** Life<Cell> 7x6 ***

Generation = 0, Population = 11.
0----0
---0--
------
--0--0
00-0--
--0---
-0--0-

Generation = 13, Population = 17.
*-**.-
1-.1*.
0*-.*.
.*.*--
..*.1.
.*.*..
.-**..

*** Life<Cell> 24x11 ***

Generation = 0, Population = 63.
-----0-----
-0----0--00
0000------0
-----------
------0-0--
0---0--0--0
-------0---
-----0----0
-0--------0
---0------0
0000---00--
------0----
0-00---0--0
--0------00
----00---0-
-------0---
---------0-
---0----0--
-----0----0
--0-------0
-----------
00-0-0-0---
-00-0--0-00
0----0---0-

Generation = 6, Population = 124.
.*.0-10---*
-1-*--0.---
-.*..-*0-1.
1.-11-*--1-
*.-110*.--*
**--.10*--0
100-1*-1.-0
-*10----.1*
-**110-----
11-1*-...0-
.---.--.*-*
01.*----.1-
**-*-01-*0*
.01---*0-0*
*--***1**.1
11..------0
-1-*1-1*-*.
-..--*0*--*
--*---0*-1*
-.1--110-.*
-**00.1-1*-
1-.1.0-.0-*
.-..*.**-.*
01-0-1-*1.-

*** Life<Cell> 25x7 ***

Generation = 0, Population = 61.
000000-
-0--0--
0000---
--0----
----0-0
---0---
--0---0
-----0-
-00--0-
-0--00-
------0
-0-----
---00--
0-00--0
---0--0
--0----
--000--
--0-0--
0-0----
0----00
-0-00-0
0----00
-00--00
-0---00
0------

Generation = 12, Population = 62.
...***.
-0.*.-1
.1..-1.
.-..***
*1...-.
1...0**
....--1
*.*0..-
*-.*1*-
....*.-
0-..*..
.*.-...
.***...
.-*-...
..**...
.**.-..
0*.*..*
1.-*.**
*-****-
*-*....
*.*....
0..-**.
...-..*
-....**
.-**...

Generation = 24, Population = 47.
.......
.....**
.....**
.1...**
.......
...*.*.
...*.*.
.......
....*..
.....**
-...*.*
...***.
...**..
..**...
...***.
.*****.
.***..*
*..*.**
*..***-
***.*..
.......
.......
.......
-......
.......

Generation = 36, Population = 20.
.......
.......
.......
.-.....
.......
.......
.......
.......
....**.
....*.*
-..**.*
..***.*
..*..*.
..*..*.
...***.
....**.
.......
.......
.......
.......
.......
.......
.......
-......
.......

Generation = 48, Population = 0.
.......
.......
.......
.-.....
.......
.......
.......
.......
.......
.......
-......
.......
.......
.......
.......
.......
.......
.......
.......
.......
.......
.......
.......
-......
.......

*** Life<Cell> 25x13 ***

Generation = 0, Population = 81.
00----------0
0-0--------0-
---0-00-----0
0-0-0----0-0-
-0---------0-
0---0-------0
--0----------
0--------0---
---------0--0
--00-----0--0
000-00--0--0-
-----0------0
--0-0-0------
-00-0--0-----
-----000-0---
-----0-0--0--
-----00---00-
-----000--00-
-0-0---00----
0----0-------
---0--0----0-
0-0---0---0--
0-0-0--------
-0--0--------
--0--0-------

Generation = 3, Population = 167.
-*100110-0-0-
*0000-000-01-
-101-*1-101--
0-1-00--01--1
00-0-11-0*---
10*-1010-0111
-*---0000*01-
--011-010*010
*-0-11-1*-*-*
-1-11---0.-11
-0-0-0*-00-0-
0*-0*10-0---0
-1--.--1-----
-1-1.--*0*-0-
0-*100-1--1--
0-11-0-.-1.--
-1-0*.1*-----
-00**1100---*
--0--1101--00
00-1---0--0-0
10--0-----000
*-.--*10-0---
--.1.-0------
-0-----0-0---
0-0*----0-0--

Generation = 6, Population = 145.
-**-*1*1--*1-
*-1--1111-110
0--1-.**.1*1-
1-.-..10**0*-
*-1--.*--*-1-
-0.0.0---....
1.---1011*-.-
---*1-1--*1*0
*--0*.0*.0.-.
1.0---*--*-*-
----11.*-.-**
..0-.*-0.---0
-*.-*-1.-0---
1.-*.01.-.-1-
1*.10--.1----
-*-.--0*.*.--
1.-*..-*0-*-*
*-*...1010--*
0--*--.-*-1.1
--0-10-10-.-1
.0*0--**01-11
.0*-1*.--0--*
1-.-*11-0--1-
1-11-0-0--010
--**---------

*** Life<Cell> 25x11 ***

Generation = 0, Population = 13.
---------0-
-----------
-----------
-----------
-00--------
-----0-----
------0----
-----------
-----------
-----------
-------0---
-----------
---------0-
------0----
-----------
------0----
-----------
-----------
-----------
----------0
----------0
--0--------
-----------
-----------
0----------

Generation = 8, Population = 84.
*..-...----
-----------
01-----..--
-0001------
*.*-....-.*
1.011-1.-1-
--.1--.-.*-
-1----*--.-
-*.1--.--0-
--1..*-----
--.---00---
-----0*1--0
--0--0*---0
0-0--0--0--
------0---.
0-------10*
0-------1-*
-------01.1
0-----.--1.
.0*-1-11.-.
.-0-*0.1.1.
.1-00--00**
..-1--*0--1
011---0--1*
-0.---*-*1*

*** Life<Cell> 15x28 ***

Generation = 0, Population = 50.
------0---0---0-----0-0-----
--00-----0-------0---0---0--
0-00-----------0-------0----
-0--------------------------
-0----0----0------0---------
--0-----------------0-------
-----0---0-----0------------
-0---0----0-------0---------
0-0-----0-------------------
------------0-0-----0-------
0---0-0-----00----0----0----
-0--------------------------
-------------0--0-----------
----------0--------0-0------
-----0----------------------

Generation = 12, Population = 178.
...*-111*1.-.1...**--1....-*
**0......*-..--.0..1**..00.*
-0*-..1.1-**-..-.---...-....
*..1--.***.-**0.-..*..*-..-*
**.*...-**-1.*-.-..-..-*-.*1
0..-*.**-.1**--0..*.***0-*.-
-..**.*..*1.*.1.**..01-*-000
.-**1..-.-*-*-0**.*--10----0
.1.*1.1-*..*.*..*.**--.--*--
-*.-1-.*1-**.1..0-.***1..1-0
-..--.1.*.*.-.....-**111.-*.
01.*--.*0-*...*0.***..**.1-0
*1-1.-11...**-.***.-.-1.-.1-
1**-.0**---1..**0.-*--.**-*-
.**.-*****...---*1--0.-.-*0*

*** Life<Cell> 27x4 ***

Generation = 0, Population = 46.
--0-
----
-0--
0-0-
--00
----
----
-0-0
0--0
--00
-0-0
0000
---0
00--
0-00
0000
-00-
0-0-
000-
-00-
0-00
----
00--
----
00--
-0--
-0--

Generation = 8, Population = 45.
1.1-
*-.0
0*10
*-.-
.--.
*-..
-*-*
-.-*
11*1
11..
-.*-
*.*.
*0-.
..--
-0*.
*-10
1*-.
.-..
-...
--*-
-.**
.*.-
.*-.
**00
1-.0
-.--
**0.

Generation = 16, Population = 40.
.**.
***.
*..-
***.
.*-.
.-..
..-*
..**
-...
.***
0*.-
..*.
...*
...*
1.**
....
*...
*-..
*.*.
....
*.*.
*..*
..1*
*.-*
.***
-.--
.*..

Generation = 24, Population = 27.
....
....
...-
..*.
.*..
**..
*.*.
.*..
.*..
.*..
*.*1
...*
..**
....
-...
.*..
**..
....
**..
.*..
....
....
....
..-.
**..
*..*
..**

Generation = 32, Population = 20.
....
....
...-
.**.
*.*.
.*..
....
....
....
....
..*-
.*.*
.**.
....
....
....
....
....
**..
**..
....
....
....
..-.
**..
*..*
..**

*** Life<Cell> 28x10 ***

Generation = 0, Population = 39.
-----0----
-00---0---
--------0-
----------
-0--------
----0--0--
----------
----00----
----0---0-
---0------
--------0-
--0-------
----00--00
-00-------
--0-----0-
----00-0--
----------
----------
-----00---
---------0
-----00---
----------
-----0----
----0-----
----0-----
--0---0---
--0------0
0---------

Generation = 12, Population = 122.
-*-.-.**..
*.***..1*0
-.1-...-*-
0.***..1-.
0*...1-..0
*.-.**.--.
**10---010
1..-*.*..-
-**1*-*-..
1...**1-1.
--*0*1.*1.
*11.*-*.--
.-*1*..*..
..-11.-1**
..-*..--.1
-...**---.
1-****..-.
1**.**--*-
-*--......
-.--.--..-
*-.1..**..
*-11--**--
-.**...*.-
1*10.**.-.
****-..0*0
.-.*-**-*.
.0*0-0..1*
00*1-0*1-.

Generation = 24, Population = 70.
-..****...
...**..*.-
-.-1..**..
..*...**..
.**..**..-
.*..*.....
.***-*..*.
..***.**..
-..1......
......--..
...-...**.
.-.....**.
.1*.......
..***..*..
*.*.*.****
....*.*..*
..*.*..*.*
.*..**....
.*-***.**.
..**.-...-
..........
....-...--
..........
........-.
..**......
....1.....
...-1.....
.*.--.....

Generation = 36, Population = 50.
....**....
...*..*..-
-.........
....**...*
....*....-
....**....
....*....*
....**...*
....**....
....*....*
...1*....*
...*....*.
....*..*..
**...*..*.
*.*..*.*..
.**.......
.**.......
..........
..-.......
.....*...-
....*.*...
....-**.--
..........
........-.
....*.....
...*.*....
...*..*...
...-**....

*** Life<Cell> 4x26 ***

Generation = 0, Population = 51.
--0-00-0----0--000-00--00-
-0--0--00----0----000-----
-00--00-000-0-000-00-000-0
0--0-0000--00--000-0----00

*** Life<Cell> 16x8 ***

Generation = 0, Population = 49.
--00----
0---0-0-
-00--000
--00--0-
0----000
------0-
0---000-
-0-0--00
-0-0-0--
0--00---
-0------
00-0000-
00-----0
------0-
0----0--
0--00--0

Generation = 17, Population = 36.
.***.*..
.*..-*..
-.....-.
........
-.....**
.....***
.*...-.1
*.*.***.
*.-**-..
***1.1**
.......-
-.-.-***
.-...*0-
.....-*.
.......*
.....1..

Generation = 34, Population = 28.
***.*...
*....*..
1**..*-.
.*...**.
..**....
..**.**.
...*....
....*...
.....-*.
........
........
........
........
....*.*.
...*...*
....*.*.

*** Life<Cell> 1x2 ***

Generation = 0, Population = 2.
00

Generation = 6, Population = 0.
..

Generation = 12, Population = 0.
..

Generation = 18, Population = 0.
..

Generation = 24, Population = 0.
..

Generation = 30, Population = 0.
..

Generation = 36, Population = 0.
..

*** Life<Cell> 9x21 ***

Generation = 0, Population = 52.
-0------00------0----
--00---0-0-----00----
0---0-00------0------
----00----0---------0
---0-0-0----00----0-0
-0---0----0--0-000-0-
----0---00---0-------
0--00---0----0--00---
-00--0---0---0-0-0---

Generation = 18, Population = 64.
*1...................
*.**...*1..-.1.......
*.-...*.*11....10-.*.
.*..*....1***...*....
-***........*...**...
**.**.**-....*.*.*..*
**-.*.*.*.*..**.1.**.
...*.**-*.*...*..**..
.....**.**.*-*..-.-..

*** Life<Cell> 4x6 ***

Generation = 0, Population = 22.
00-000
000000
0-0000
000000

Generation = 16, Population = 1.
.-.-..
....1.
.-..-.
...-.-

Generation = 32, Population = 1.
.-.-..
....1.
.-..-.
...-.-

*** Life<Cell> 1x13 ***

Generation = 0, Population = 13.
0000000000000

Generation = 1, Population = 2.
1-----------1

Generation = 2, Population = 2.
-0---------0-

Generation = 3, Population = 4.
1-0-------0-1

Generation = 4, Population = 2.
---0-----0---

Generation = 5, Population = 4.
--0-0---0-0--

Generation = 6, Population = 4.
-0---0-0---0-

Generation = 7, Population = 6.
1-0-0---0-0-1

Generation = 8, Population = 2.
-----0-0-----

Generation = 9, Population = 2.
----0---0----

Generation = 10, Population = 4.
---0-0-0-0---

Generation = 11, Population = 2.
--0-------0--

Generation = 12, Population = 4.
-0-0-----0-0-

Generation = 13, Population = 4.
1---0---0---1

Generation = 14, Population = 6.
-0-0-0-0-0-0-

Generation = 15, Population = 2.
1-----------1

Generation = 16, Population = 2.
-0---------0-

Generation = 17, Population = 4.
1-0-------0-1

Generation = 18, Population = 2.
---0-----0---

Generation = 19, Population = 4.
--0-0---0-0--

Generation = 20, Population = 4.
-0---0-0---0-

Generation = 21, Population = 6.
1-0-0---0-0-1

Generation = 22, Population = 2.
-----0-0-----

Generation = 23, Population = 2.
----0---0----

Generation = 24, Population = 4.
---0-0-0-0---

Generation = 25, Population = 2.
--0-------0--

Generation = 26, Population = 4.
-0-0-----0-0-

Generation = 27, Population = 4.
1---0---0---1

Generation = 28, Population = 6.
-0-0-0-0-0-0-

Generation = 29, Population = 2.
1-----------1

Generation = 30, Population = 2.
-0---------0-

Generation = 31, Population = 4.
1-0-------0-1

Generation = 32, Population = 2.
---0-----0---

Generation = 33, Population = 4.
--0-0---0-0--

Generation = 34, Population = 4.
-0---0-0---0-

Generation = 35, Population = 6.
1-0-0---0-0-1

Generation = 36, Population = 2.
-----0-0-----

Generation = 37, Population = 2.
----0---0----

Generation = 38, Population = 4.
---0-0-0-0---

Generation = 39, Population = 2.
--0-------0--

Generation = 40, Population = 4.
-0-0-----0-0-

Generation = 41, Population = 4.
1---0---0---1

Generation = 42, Population = 6.
-0-0-0-0-0-0-

Generation = 43, Population = 2.
1-----------1

Generation = 44, Population = 2.
-0---------0-

Generation = 45, Population = 4.
1-0-------0-1

Generation = 46, Population = 2.
---0-----0---

Generation = 47, Population = 4.
--0-0---0-0--

Generation = 48, Population = 4.
-0---0-0---0-

Generation = 49, Population = 6.
1-0-0---0-0-1

*** Life<Cell> 24x24 ***

Generation = 0, Population = 48.
---------0----0---------
-0----00-------0-0-0----
-0----------0---------0-
------------------------
-------------0----------
------------------------
-----0------------------
------0-----------0-----
-00------------0-------0
----------0------0----0-
-------------0----------
--0--------------0---0--
-------------00---0-----
0-----------------------
--------0---------------
------0-------------0---
---------------------0--
------------------------
------------------------
--0---0---------------0-
0---------0-------------
--0---------------------
-------0---0-0-0--0-----
-0---------------0---0--

Generation = 16, Population = 222.
-.-*1*-******-.*..***0..
.**..*.*.*.***--**.1-.0-
*.**--**.*...*....*0.*-1
*.1..*..*.0.......1.-.*.
*....-.-*0-1**....*.**1*
..*.*.*.**.-***...*..*.-
.....0*.**.*..0*1.-1*-.*
..*-.*..*-*....-**1-..-*
..***...**.-.**-*-*....-
.*..*.**.**..-..-.*....*
1...-.--.*.*1..*..*...-.
111..-.-.*.*..*...*.***.
1....--1.*....*..*.*1.*.
...*.*.*.*...*-**..1*...
....**.*.-.*...0-*--*.*.
*.1..0.-*..-.**.*.**.*.0
*..-*.1*.0.1.-1..*.*-.-*
.0*-**.--1-.--***0..**1-
.0*1..--..--1-.-**.-.*.*
*-....*..-*-..-..*.....*
.0*1....**-.*...*.0.-.*-
..**..***-.-1..**.****.-
.......-.1..1..***.***.-
.*-...1-*...1.1...-.....

*** Life<Cell> 25x26 ***

Generation = 0, Population = 65.
---------------00-------0-
------------0--------0----
----------0---------------
------------00-0----------
---0-------------0---0----
--------0-----0-0-0-------
--------------------------
--0------0--------------0-
--0-----------------------
---------------0-0--------
---0-------------------0-0
--0--------0-------0-0----
--0-----------------------
------------0--------0----
------0---0--0------------
--------0--0---0-0--------
---0---0-------0----------
--0---0--0--0-------------
0-----00-0------0---------
0-------------------0-----
-----0---------0----------
------0-------------------
0----0-------------0-0----
-------------0-00---0---0-
--------------------------

Generation = 12, Population = 261.
---0.11-.-.*****.*.-**..-1
-0--1-*--**1...**1*.-..-.-
--**--1...-*-.....*.-.***.
--**-**0**........--*..-.1
.11--*..-.*..---1*.1..1.*1
.1..-..**.*1...-0-......*-
--****1*...-*.-*1.-1-11-.-
...1**-..-*.*1.0...*.**.--
...*0*.-----..1*0-*-1.--.-
*-***.*-*-1*0.--..*0--0*11
*--0****-***...-.1-...0*--
.1.-*.*.**...1..-**...1***
.--.-1...-*****--*0--1-110
.1.01*.--*.1..-.-*0--0-1.*
**...-...1.-*0-.....0.--**
...-.-0-0..*..-.*..--***0*
.....1-.....--1...*1*01.01
*1..........-.-*-..1-.-*-1
*..1..1....*.*.-1....1*-.-
*..0.1***.-**1.0.*.-*-10--
*1--.-*.***-1-*....11--*--
*1*---........-**-..1.-1-1
*0..*1-..1-*0**11..---110-
..10.-..1.1--*0.*.--0*1*-*
*.1-*-*01.1-0.-.**1.00---*

*** Life<Cell> 13x5 ***

Generation = 0, Population = 29.
0-0--
0---0
0--00
0-0-0
----0
-00-0
---0-
-00--
00-00
00---
00-0-
0---0
---0-

Generation = 18, Population = 20.
.-*.-
.**..
..*..
...-1
..**.
.***.
.***.
.***.
1....
...*.
.**..
....-
.-...

Generation = 36, Population = 5.
.-..-
.....
.....
...1-
.....
.....
.....
.....
-....
.....
.....
**..-
**...

*** Life<Cell> 14x17 ***

Generation = 0, Population = 63.
-0--0---------0--
0-----00---0-----
------0---00-----
-0--00--000---0-0
---0---------00-0
--0---0-0------0-
----0-0-----00-0-
--------0--------
---00-00-0--0----
0-0--0-----0---0-
-00----0---------
0-0--000----0----
---0-0--0-0-0-0-0
---00---0---0----

Generation = 12, Population = 105.
*****.-0-......1.
*10.****..-*...*-
-**-*****1.0..-0*
.*....*-..*..-..*
.******10.*-**.**
*.......0**..**-1
*..***1...***.-*.
1*11*0..*...*..-.
-*-...-.*-....-..
*.***-0.1.-**-0..
.**...-..0*10***-
...-.*........**.
..1.-.0-.****...-
..-**1.-.*-****..

Generation = 24, Population = 71.
........**.*.*...
**1........*..*.-
..*-...*...*.*...
..........*.*....
..*......*.**.**.
...*....-.***..-.
...*....****....*
*.*.*...**......*
*.**.*.*.***...*.
***..*****.*..*..
.*...**.**.......
..***............
*.....-.......*.*
**............**.

Generation = 36, Population = 16.
.................
..-..............
.................
.................
........***......
...........*..**.
........*..*..**.
.........**......
.................
.................
.................
.................
......-.......**.
..............**.
